Final Project
…
Creating information about the most unhealthy foodstuffs

It would be good to see which are the articles in the list that have a value of more than 1 (to see which article will cover more than what you need for one day and thus is probably best avoided)

## # A tibble: 77 x 2
##    restaurant item                                           
##    <chr>      <chr>                                          
##  1 Mcdonalds  Double Bacon Smokehouse Burger                 
##  2 Mcdonalds  Grilled Bacon Smokehouse Chicken Sandwich      
##  3 Mcdonalds  Double Quarter Pounder with Cheese            
##  4 Mcdonalds  Crispy Maple Bacon Dijon Chicken Sandwich      
##  5 Mcdonalds  6 piece Buttermilk Crispy Chicken Tenders      
##  6 Mcdonalds  10 piece Buttermilk Crispy Chicken Tenders     
##  7 Mcdonalds  12 piece Buttermilk Crispy Chicken Tenders     
##  8 Mcdonalds  20 piece Buttermilk Crispy Chicken Tenders     
##  9 Mcdonalds  40 piece Chicken McNuggets                     
## 10 Mcdonalds  6 piece Sweet N' Spicy Honey BBQ Glazed Tenders
## # ... with 67 more rows
…
## # A tibble: 36 x 18
##       X1 restaurant item  calories total_fat_perc sat_fat_perc trans_fat_perc
##    <dbl> <chr>      <chr>    <dbl>          <dbl>        <dbl>          <dbl>
##  1    38 Mcdonalds  10 p~     1210          0.897        0.6            0.05 
##  2    39 Mcdonalds  12 p~     1510          1.13         0.75           0.05 
##  3    40 Mcdonalds  20 p~     2430          1.81         1.2            0.1  
##  4    45 Mcdonalds  40 p~     1770          1.37         0.9            0.025
##  5    47 Mcdonalds  6 pi~      960          0.513        0.3            0    
##  6    48 Mcdonalds  10 p~     1600          0.846        0.5            0    
##  7    70 Chick Fil~ 30 p~      970          0.590        0.125          0    
##  8    83 Chick Fil~ Chic~      860          0.603        0.8            0.05 
##  9    99 Sonic      Supe~     1280          1.18         1.8            0.2  
## 10   102 Sonic      Supe~     1220          1.12         1.7            0.2  
## # ... with 26 more rows, and 27 more variables: cholesterol_perc <dbl>,
## #   sodium_perc <dbl>, total_carb_perc <dbl>, fiber_perc <dbl>,
## #   sugar_perc <dbl>, protein_perc <dbl>, vit_a_perc <dbl>, vit_c_perc <dbl>,
## #   calcium_perc <dbl>, calories_perc <dbl>, healthy[,"X1"] <dbl>,
## #   [,"restaurant"] <dbl>, [,"item"] <dbl>, [,"calories"] <dbl>,
## #   [,"total_fat_perc"] <dbl>, [,"sat_fat_perc"] <dbl>,
## #   [,"trans_fat_perc"] <dbl>, [,"cholesterol_perc"] <dbl>,
## #   [,"sodium_perc"] <dbl>, [,"total_carb_perc"] <dbl>, [,"fiber_perc"] <dbl>,
## #   [,"sugar_perc"] <dbl>, [,"protein_perc"] <dbl>, [,"vit_a_perc"] <dbl>,
…
